{
  "name": "zzzparanoidal",
  "version": "1.0.1",
  "title": "!_Paranoidal",
  "factorio_version": "1.1",
  "author": "Sovigod",
  "contact": "https://discord.gg/MnXGAmC",
  "homepage": "https://discord.gg/MnXGAmC",
  "description": "Paranoidal core mod for 1.1",
  "dependencies": [
    "base >= 1.1.91",
    "boblibrary", 
    "BatteryElectricTrain",
    "? angelsindustries", 
    "? angelsrefining", 
    "? extendedangels",
    "angelsbioprocessing",
    "angelssmelting",
    "KaoExtended",
    "expanded-rocket-payloads",
    "MilesBobsExpansion",
    "Clowns-AngelBob-Nuclear",
    "Clowns-Processing",
    "bobwarfare",
    "bobrevamp",
    "AtomicArtillery",
    "Bio_Industries",
    "marathon",
    "RU-locale"
    ]
}